+13058224036,zendesk,Nowlin Saul
(609) 491-4267,home,Rubino Lennoxlove
+17157767000,zendesk,Deluna Mcginley
(520) 361-1642,blah,Spearman Mccreary
+16575044762,desk.com,Briley Hunterstone
(216) 433-7234,facebook,Luffness Mattison
+19898108815,work,Pitsligo Pomeroy
(984) 990-5710,party,Caprington Lor
+17193346351,home,Brims Kilbirnie Place
(810) 335-6905,space,Min Pitcon
+17193346351,work,more Brims
(810) 335-6905,erf,Max Pitcon
+18103356905,venus,Med Pitcon
